{"establishments":[{"AddressLine1":"Braunston Marina Trade Centre","AddressLine2":"Braunston Marina","AddressLine3":"The Wharf","AddressLine4":"Braunston","BusinessName":"Arts Aboard Aloysius","BusinessType":"Mobile caterer","BusinessTypeID":7846,"ChangesByServerID":0,"Distance":0.088095815008840561,"FHRSID":1728062,"LocalAuthorityBusinessID":"PI/000065549","LocalAuthorityCode":"236","LocalAuthorityEmailAddress":"contactus@westnorthants.gov.uk","LocalAuthorityName":"West Northamptonshire","LocalAuthorityWebSite":"https://www.westnorthants.gov.uk","NewRatingPending":false,"Phone":"","PostCode":"NN11 7JH","RatingDate":"2024-06-19T00:00:00","RatingKey":"fhrs_5_en-gb","RatingValue":"5","RightToReply":"","SchemeType":"FHRS","geocode":{"longitude":"-1.2110593","latitude":"52.2878009"},"scores":{"Hygiene":0,"Structural":0,"ConfidenceInManagement":0}},{"AddressLine1":"On-Site Catering","AddressLine2":"Amazon","AddressLine3":"Royal Oak Way North","AddressLine4":"Daventry","BusinessName":"BaxterStorey Ltd at Amazon","BusinessType":"Restaurant/Cafe/Canteen","BusinessTypeID":1,"ChangesByServerID":0,"Distance":1.7935111776727153,"FHRSID":1055613,"LocalAuthorityBusinessID":"PI/000055793","LocalAuthorityCode":"236","LocalAuthorityEmailAddress":"contactus@westnorthants.gov.uk","LocalAuthorityName":"West Northamptonshire","LocalAuthorityWebSite":"https://www.westnorthants.gov.uk","NewRatingPending":false,"Phone":"","PostCode":"","RatingDate":"2023-07-13T00:00:00","RatingKey":"fhrs_5_en-gb","RatingValue":"5","RightToReply":"","SchemeType":"FHRS","geocode":{"longitude":"-1.1883124","latitude":"52.2653357"},"scores":{"Hygiene":0,"Structural":0,"ConfidenceInManagement":0}},{"AddressLine1":"6 Sopwith Way","AddressLine2":"Daventry","AddressLine3":"West Northamptonshire","AddressLine4":"","BusinessName":"Best Before It's Gone","BusinessType":"Retailers - other","BusinessTypeID":4613,"ChangesByServerID":0,"Distance":1.8790765416555957,"FHRSID":1700325,"LocalAuthorityBusinessID":"PI/000065282","LocalAuthorityCode":"236","LocalAuthorityEmailAddress":"contactus@westnorthants.gov.uk","LocalAuthorityName":"West Northamptonshire","LocalAuthorityWebSite":"https://www.westnorthants.gov.uk","NewRatingPending":false,"Phone":"","PostCode":"NN11 8PB","RatingDate":"2024-09-19T00:00:00","RatingKey":"fhrs_5_en-gb","RatingValue":"5","RightToReply":"","SchemeType":"FHRS","geocode":{"longitude":"-1.174757","latitude":"52.270657"},"scores":{"Hygiene":0,"Structural":0,"ConfidenceInManagement":0}},{"AddressLine1":"The Village Cafe","AddressLine2":"31 High Street","AddressLine3":"Braunston","AddressLine4":"West Northamptonshire","BusinessName":"Braunston Community Cafe","BusinessType":"Other catering premises","BusinessTypeID":7841,"ChangesByServerID":0,"Distance":0.22908310815384511,"FHRSID":1792745,"LocalAuthorityBusinessID":"PI/000066398","LocalAuthorityCode":"236","LocalAuthorityEmailAddress":"contactus@westnorthants.gov.uk","LocalAuthorityName":"West Northamptonshire","LocalAuthorityWebSite":"https://www.westnorthants.gov.uk","NewRatingPending":false,"Phone":"","PostCode":"NN11 7HR","RatingDate":"2025-01-07T00:00:00","RatingKey":"fhrs_5_en-gb","RatingValue":"5","RightToReply":"","SchemeType":"FHRS","geocode":{"longitude":"-1.2081631","latitude":"52.291274"},"scores":{"Hygiene":0,"Structural":5,"ConfidenceInManagement":5}},{"AddressLine1":"Unit 4b","AddressLine2":"Oak House","AddressLine3":"Royal Oak Way North","AddressLine4":"Daventry","BusinessName":"Crazy Horses Entertainment","BusinessType":"Mobile caterer","BusinessTypeID":7846,"ChangesByServerID":0,"Distance":1.6513805647392148,"FHRSID":1494558,"LocalAuthorityBusinessID":"PI/000039285","LocalAuthorityCode":"236","LocalAuthorityEmailAddress":"contactus@westnorthants.gov.uk","LocalAuthorityName":"West Northamptonshire","LocalAuthorityWebSite":"https://www.westnorthants.gov.uk","NewRatingPending":false,"Phone":"","PostCode":"NN11 8PQ","RatingDate":"2022-04-13T00:00:00","RatingKey":"fhrs_5_en-gb","RatingValue":"5","RightToReply":"","SchemeType":"FHRS","geocode":{"longitude":"-1.1859479","latitude":"52.2687025"},"scores":{"Hygiene":0,"Structural":5,"ConfidenceInManagement":5}}],"meta":{"dataSource":"ElasticSearch","extractDate":"2026-07-04T20:10:56.9353369+01:00","itemCount":5,"returncode":"OK","totalCount":33,"totalPages":7,"pageSize":5,"pageNumber":1},"links":[{"rel":"self","href":"https://api.ratings.food.gov.uk/establishments?latitude=52.288&longitude=-1.209&maxdistancelimit=2&pagesize=5"}]}